<?xml version="1.0" encoding="utf-8"?>
<!-- Generator: Adobe Illustrator 16.0.0, SVG Export Plug-In . SVG Version: 6.00 Build 0)  -->
<!DOCTYPE svg PUBLIC "-//W3C//DTD SVG 1.1//EN" "http://www.w3.org/Graphics/SVG/1.1/DTD/svg11.dtd">
<svg version="1.1" id="Layer_1" xmlns="http://www.w3.org/2000/svg" xmlns:xlink="http://www.w3.org/1999/xlink" x="0px" y="0px"
	 width="386.5px" height="670.5px" viewBox="0 0 386.5 670.5" enable-background="new 0 0 386.5 670.5" xml:space="preserve">
<g id="_x23_222222ff">
	<path fill="#222222" d="M0,0h0.98C1,220,1.04,440,0.99,660H0V0z"/>
</g>
<g id="_x23_8561e0ff">
	<path fill="#8561E0" d="M0.98,0h0.98c0.03,0.7,0.08,2.1,0.1,2.81c0.11,35.02-0.23,70.05,0.05,105.07
		C2.25,162.82,2.07,217.76,2.1,272.7C1.75,401.8,2.07,530.9,1.95,660H0.99C1.04,440,1,220,0.98,0z"/>
</g>
<g id="_x23_6529dfff">
</g>
<g id="_x23_662de0ff">
</g>
<g id="_x23_6f34dfff">
	<linearGradient id="SVGID_1_" gradientUnits="userSpaceOnUse" x1="1.9966" y1="324.1797" x2="386.0264" y2="324.1797">
		<stop  offset="0.0269" style="stop-color:#6528DD"/>
		<stop  offset="1" style="stop-color:#6425DC"/>
	</linearGradient>
	<path fill="url(#SVGID_1_)" d="M303.65,392.37c13.09,37.899,21.29,77.54,23.68,117.58c1.29,14.64,0.53,29.359,0.75,44.05
		c-0.71,23.89-3.33,47.73-7.9,71.2c-0.833,3.815-1.825,13.165-2.508,20.349c15.703-1.837,31.288-2.822,47.089-2.84
		c0.818-3.812,0.675-3.724,1.169-4.059c0.521-2.92,1.051-5.851,1.931-8.681c3.13-10.069,5.38-20.38,7.37-30.72
		c4.989-24.15,8.659-48.61,9.96-73.25c1.319-14.63,0.609-29.33,0.81-44c0.2-9.34-0.78-18.63-1.33-27.94
		c-2.84-42.63-11.82-84.76-25.56-125.18c-6.46-20.24-15.17-39.65-24.12-58.88c-3.92-8.49-9.05-16.33-13.471-24.55
		c-13.47-24.12-29.1-47.03-46.439-68.53c-7.891-9.13-15.4-18.58-23.471-27.55c-20.879-22.21-43.549-42.77-68.02-60.97
		c-22.76-17.3-47.36-32.03-72.58-45.44c-7.99-4.14-16.33-7.55-24.35-11.61C63.95,21.37,40.55,12.98,16.67,6.27
		C11.87,4.86,6.99,3.7,2.06,2.81c0.11,35.02-0.23,70.05,0.05,105.07c26.21,7.04,51.64,16.92,75.9,29.09
		c41.14,19.851,78.83,46.64,111.94,78.05c6.27,5.08,10.89,11.78,16.8,17.23c11.5,11.92,21.939,24.83,32.1,37.9
		c15.721,21.86,30.74,44.4,42.16,68.85C289.93,356.16,297.47,374.04,303.65,392.37z"/>
</g>
<g id="_x23_7840e0ff">
	<linearGradient id="SVGID_2_" gradientUnits="userSpaceOnUse" x1="2.0967" y1="389.208" x2="335.667" y2="389.208">
		<stop  offset="0" style="stop-color:#7462FA"/>
		<stop  offset="1" style="stop-color:#735FF8"/>
	</linearGradient>
	<path fill="url(#SVGID_2_)" d="M304.065,647.342c4.551-0.668,9.083-1.264,13.606-1.793c0.683-7.183,1.675-16.532,2.508-20.349
		c4.57-23.47,7.19-47.311,7.9-71.2c-0.22-14.69,0.54-29.41-0.75-44.05c-2.39-40.04-10.59-79.681-23.68-117.58
		c-6.181-18.33-13.721-36.21-22.641-53.37c-11.42-24.45-26.439-46.99-42.16-68.85c-10.16-13.07-20.6-25.98-32.1-37.9
		c-5.91-5.45-10.53-12.15-16.8-17.23c-33.11-31.41-70.8-58.2-111.94-78.05c-24.26-12.17-49.69-22.05-75.9-29.09
		C2.25,162.82,2.07,217.76,2.1,272.7c7.23,2.2,13.2,6.95,19.82,10.4c17.76,9.52,34.11,21.48,49.51,34.43
		c7.06,5.93,13.26,12.77,19.86,19.18c8.23,7.851,15.39,16.7,22.29,25.72c16.81,21.49,29.81,45.75,40.04,70.98
		c6.79,18.34,12.23,37.2,15.54,56.479c8.47,50.761,3.89,103.75-14.26,151.98c-1.39,3.47-11.26,24.94-11.9,28.63
		c13.171-0.61,32.044-0.36,46,0c4.552-1.205,29.252,0.279,34,0c6.249-1.844,31.444-8.932,38-10.667
		C283.667,653.833,283,651.833,304.065,647.342z"/>
</g>
<g id="_x23_6e31deff">
</g>
<g id="_x23_ffffffff">
</g>
</svg>
